%YAML 1.1
%TAG !u! tag:unity3d.com,2011:
--- !u!114 &11400000
MonoBehaviour:
  m_ObjectHideFlags: 0
  m_PrefabParentObject: {fileID: 0}
  m_PrefabInternal: {fileID: 0}
  m_GameObject: {fileID: 0}
  m_Enabled: 1
  m_EditorHideFlags: 0
  m_Script: {fileID: 11500000, guid: c0faff489a1177d49ab35bc254193b43, type: 3}
  m_Name: TestItem
  m_EditorClassIdentifier: 
  name: Helmet
  icon: {fileID: 0}
  isDefaultItem: 0
